{
    "apps": [
        {
            "name": "Grocery",
            "script": "dist/app.js",
            "args": "",
            "instances": 2,
            "increment_var": "PORT",
            "exec_mode": "cluster",
            "watch": false,
            "error_file": "logs/msr_err.log",
            "out_file": "logs/msr.log",
            "pid_file": "pids/msr.pid",
            "no-autorestart": true,
            "log_date_format": "YYYY-MM-DD HH:mm Z",
            "max_memory_restart": "512M",
            "kill_timeout": 7000,
            "wait_ready": true,
            "listen_timeout": 7000,
            "env": {
                "NODE_ENV": "development",
                "PORT": 3000
            },
            "env_staging": {
                "NODE_ENV": "staging",
                "PORT": 3000
            },
            "env_production": {
                "NODE_ENV": "production",
                "PORT": 3000
            },
            "env_local": {
                "NODE_ENV": "local",
                "PORT": 3000
            }
        }
    ]
}